Data 608 Assignment 1 - Jithendra (Jit) Seneviratne
…
inc_state_summary <- rbind(inc_state_summary[c(1:24),],
                           (inc_state_summary[c(25:nrow(inc_state_summary)),] %>% 
                            summarise(
                            State = 'Other',
                            number = sum(number))))
inc_state_summary

## # A tibble: 25 x 2
##    State number
##    <fct>  <int>
##  1 CA       701
##  2 TX       387
##  3 NY       311
##  4 VA       283
##  5 FL       282
##  6 IL       273
##  7 GA       212
##  8 OH       186
##  9 MA       182
## 10 PA       164
## #  with 15 more rows
…
